<svg width="60" height="60" viewBox="0 0 60 60" fill="none" xmlns="http://www.w3.org/2000/svg">
<path d="M50 10H10C7.2425 10 5 12.2425 5 15V45C5 47.7575 7.2425 50 10 50H50C52.7575 50 55 47.7575 55 45V15C55 12.2425 52.7575 10 50 10ZM50 15V16.2775L30 31.835L10 16.28V15H50ZM10 45V22.61L28.465 36.9725C28.9028 37.3164 29.4433 37.5033 30 37.5033C30.5567 37.5033 31.0972 37.3164 31.535 36.9725L50 22.61L50.005 45H10Z" fill="white"/>
</svg>
